^C:\USERS\ADRIAFRETGARCIA\DOWNLOADS\IG1\X64\DEBUG\INT\IMGUI.OBJ|C:\USERS\ADRIAFRETGARCIA\DOWNLOADS\IG1\X64\DEBUG\INT\IMGUI_DEMO.OBJ|C:\USERS\ADRIAFRETGARCIA\DOWNLOADS\IG1\X64\DEBUG\INT\IMGUI_DRAW.OBJ|C:\USERS\ADRIAFRETGARCIA\DOWNLOADS\IG1\X64\DEBUG\INT\IMGUI_IMPL_SDL_GL3.OBJ|C:\USERS\ADRIAFRETGARCIA\DOWNLOADS\IG1\X64\DEBUG\INT\MAIN.OBJ|C:\USERS\ADRIAFRETGARCIA\DOWNLOADS\IG1\X64\DEBUG\INT\MY_RENDER_CODE.OBJ|C:\USERS\ADRIAFRETGARCIA\DOWNLOADS\IG1\X64\DEBUG\INT\PHYSICS.OBJ|C:\USERS\ADRIAFRETGARCIA\DOWNLOADS\IG1\X64\DEBUG\INT\RENDER.OBJ|C:\USERS\ADRIAFRETGARCIA\DOWNLOADS\IG1\X64\DEBUG\INT\RENDER_PRIMS.OBJ
C:\WINDOWS\GLOBALIZATION\SORTING\SORTDEFAULT.NLS
C:\PROGRAM FILES (X86)\WINDOWS KITS\10\LIB\10.0.15063.0\UM\X64\OPENGL32.LIB
C:\USERS\ADRIAFRETGARCIA\DOWNLOADS\IG1\CODE\LIBS\GLEW32.LIB
C:\USERS\ADRIAFRETGARCIA\DOWNLOADS\IG1\CODE\LIBS\SDL2.LIB
C:\USERS\ADRIAFRETGARCIA\DOWNLOADS\IG1\CODE\LIBS\SDL2MAIN.LIB
C:\PROGRAM FILES (X86)\WINDOWS KITS\10\LIB\10.0.15063.0\UM\X64\KERNEL32.LIB
C:\PROGRAM FILES (X86)\WINDOWS KITS\10\LIB\10.0.15063.0\UM\X64\USER32.LIB
C:\PROGRAM FILES (X86)\WINDOWS KITS\10\LIB\10.0.15063.0\UM\X64\GDI32.LIB
C:\PROGRAM FILES (X86)\WINDOWS KITS\10\LIB\10.0.15063.0\UM\X64\WINSPOOL.LIB
C:\PROGRAM FILES (X86)\WINDOWS KITS\10\LIB\10.0.15063.0\UM\X64\COMDLG32.LIB
C:\PROGRAM FILES (X86)\WINDOWS KITS\10\LIB\10.0.15063.0\UM\X64\ADVAPI32.LIB
C:\PROGRAM FILES (X86)\WINDOWS KITS\10\LIB\10.0.15063.0\UM\X64\SHELL32.LIB
C:\PROGRAM FILES (X86)\WINDOWS KITS\10\LIB\10.0.15063.0\UM\X64\OLE32.LIB
C:\PROGRAM FILES (X86)\WINDOWS KITS\10\LIB\10.0.15063.0\UM\X64\OLEAUT32.LIB
C:\PROGRAM FILES (X86)\WINDOWS KITS\10\LIB\10.0.15063.0\UM\X64\UUID.LIB
C:\PROGRAM FILES (X86)\WINDOWS KITS\10\LIB\10.0.15063.0\UM\X64\ODBC32.LIB
C:\PROGRAM FILES (X86)\WINDOWS KITS\10\LIB\10.0.15063.0\UM\X64\ODBCCP32.LIB
C:\USERS\ADRIAFRETGARCIA\DOWNLOADS\IG1\X64\DEBUG\INT\IMGUI.OBJ
C:\USERS\ADRIAFRETGARCIA\DOWNLOADS\IG1\X64\DEBUG\INT\IMGUI_DEMO.OBJ
C:\USERS\ADRIAFRETGARCIA\DOWNLOADS\IG1\X64\DEBUG\INT\IMGUI_DRAW.OBJ
C:\USERS\ADRIAFRETGARCIA\DOWNLOADS\IG1\X64\DEBUG\INT\IMGUI_IMPL_SDL_GL3.OBJ
C:\USERS\ADRIAFRETGARCIA\DOWNLOADS\IG1\X64\DEBUG\INT\MY_RENDER_CODE.OBJ
C:\USERS\ADRIAFRETGARCIA\DOWNLOADS\IG1\X64\DEBUG\INT\MAIN.OBJ
C:\USERS\ADRIAFRETGARCIA\DOWNLOADS\IG1\X64\DEBUG\INT\PHYSICS.OBJ
C:\USERS\ADRIAFRETGARCIA\DOWNLOADS\IG1\X64\DEBUG\INT\RENDER.OBJ
C:\USERS\ADRIAFRETGARCIA\DOWNLOADS\IG1\X64\DEBUG\INT\RENDER_PRIMS.OBJ
C:\WINDOWS\SYSTEM32\TZRES.DLL
C:\PROGRAM FILES (X86)\WINDOWS KITS\10\LIB\10.0.15063.0\UM\X64\IMM32.LIB
C:\PROGRAM FILES (X86)\MICROSOFT VISUAL STUDIO\2017\COMMUNITY\VC\TOOLS\MSVC\14.11.25503\LIB\X64\MSVCRTD.LIB
C:\PROGRAM FILES (X86)\MICROSOFT VISUAL STUDIO\2017\COMMUNITY\VC\TOOLS\MSVC\14.11.25503\LIB\X64\OLDNAMES.LIB
C:\PROGRAM FILES (X86)\MICROSOFT VISUAL STUDIO\2017\COMMUNITY\VC\TOOLS\MSVC\14.11.25503\LIB\X64\MSVCPRTD.LIB
C:\PROGRAM FILES (X86)\MICROSOFT VISUAL STUDIO\2017\COMMUNITY\VC\TOOLS\MSVC\14.11.25503\LIB\X64\VCRUNTIMED.LIB
C:\PROGRAM FILES (X86)\WINDOWS KITS\10\LIB\10.0.15063.0\UCRT\X64\UCRTD.LIB
^E:\IINFORMATICA GRAFICA\POLBLANES_ADRIAFRET_P1\X64\DEBUG\INT\IMGUI.OBJ|E:\IINFORMATICA GRAFICA\POLBLANES_ADRIAFRET_P1\X64\DEBUG\INT\IMGUI_DEMO.OBJ|E:\IINFORMATICA GRAFICA\POLBLANES_ADRIAFRET_P1\X64\DEBUG\INT\IMGUI_DRAW.OBJ|E:\IINFORMATICA GRAFICA\POLBLANES_ADRIAFRET_P1\X64\DEBUG\INT\IMGUI_IMPL_SDL_GL3.OBJ|E:\IINFORMATICA GRAFICA\POLBLANES_ADRIAFRET_P1\X64\DEBUG\INT\MAIN.OBJ|E:\IINFORMATICA GRAFICA\POLBLANES_ADRIAFRET_P1\X64\DEBUG\INT\MY_RENDER_CODE.OBJ|E:\IINFORMATICA GRAFICA\POLBLANES_ADRIAFRET_P1\X64\DEBUG\INT\PHYSICS.OBJ|E:\IINFORMATICA GRAFICA\POLBLANES_ADRIAFRET_P1\X64\DEBUG\INT\RENDER.OBJ|E:\IINFORMATICA GRAFICA\POLBLANES_ADRIAFRET_P1\X64\DEBUG\INT\RENDER_PRIMS.OBJ
C:\WINDOWS\GLOBALIZATION\SORTING\SORTDEFAULT.NLS
C:\PROGRAM FILES (X86)\WINDOWS KITS\10\LIB\10.0.15063.0\UM\X64\OPENGL32.LIB
E:\IINFORMATICA GRAFICA\POLBLANES_ADRIAFRET_P1\CODE\LIBS\GLEW32.LIB
E:\IINFORMATICA GRAFICA\POLBLANES_ADRIAFRET_P1\CODE\LIBS\SDL2.LIB
E:\IINFORMATICA GRAFICA\POLBLANES_ADRIAFRET_P1\CODE\LIBS\SDL2MAIN.LIB
C:\PROGRAM FILES (X86)\WINDOWS KITS\10\LIB\10.0.15063.0\UM\X64\KERNEL32.LIB
C:\PROGRAM FILES (X86)\WINDOWS KITS\10\LIB\10.0.15063.0\UM\X64\USER32.LIB
C:\PROGRAM FILES (X86)\WINDOWS KITS\10\LIB\10.0.15063.0\UM\X64\GDI32.LIB
C:\PROGRAM FILES (X86)\WINDOWS KITS\10\LIB\10.0.15063.0\UM\X64\WINSPOOL.LIB
C:\PROGRAM FILES (X86)\WINDOWS KITS\10\LIB\10.0.15063.0\UM\X64\COMDLG32.LIB
C:\PROGRAM FILES (X86)\WINDOWS KITS\10\LIB\10.0.15063.0\UM\X64\ADVAPI32.LIB
C:\PROGRAM FILES (X86)\WINDOWS KITS\10\LIB\10.0.15063.0\UM\X64\SHELL32.LIB
C:\PROGRAM FILES (X86)\WINDOWS KITS\10\LIB\10.0.15063.0\UM\X64\OLE32.LIB
C:\PROGRAM FILES (X86)\WINDOWS KITS\10\LIB\10.0.15063.0\UM\X64\OLEAUT32.LIB
C:\PROGRAM FILES (X86)\WINDOWS KITS\10\LIB\10.0.15063.0\UM\X64\UUID.LIB
C:\PROGRAM FILES (X86)\WINDOWS KITS\10\LIB\10.0.15063.0\UM\X64\ODBC32.LIB
C:\PROGRAM FILES (X86)\WINDOWS KITS\10\LIB\10.0.15063.0\UM\X64\ODBCCP32.LIB
E:\IINFORMATICA GRAFICA\POLBLANES_ADRIAFRET_P1\X64\DEBUG\INT\IMGUI.OBJ
E:\IINFORMATICA GRAFICA\POLBLANES_ADRIAFRET_P1\X64\DEBUG\INT\IMGUI_DEMO.OBJ
E:\IINFORMATICA GRAFICA\POLBLANES_ADRIAFRET_P1\X64\DEBUG\INT\IMGUI_DRAW.OBJ
E:\IINFORMATICA GRAFICA\POLBLANES_ADRIAFRET_P1\X64\DEBUG\INT\IMGUI_IMPL_SDL_GL3.OBJ
E:\IINFORMATICA GRAFICA\POLBLANES_ADRIAFRET_P1\X64\DEBUG\INT\MY_RENDER_CODE.OBJ
E:\IINFORMATICA GRAFICA\POLBLANES_ADRIAFRET_P1\X64\DEBUG\INT\MAIN.OBJ
E:\IINFORMATICA GRAFICA\POLBLANES_ADRIAFRET_P1\X64\DEBUG\INT\PHYSICS.OBJ
E:\IINFORMATICA GRAFICA\POLBLANES_ADRIAFRET_P1\X64\DEBUG\INT\RENDER.OBJ
E:\IINFORMATICA GRAFICA\POLBLANES_ADRIAFRET_P1\X64\DEBUG\INT\RENDER_PRIMS.OBJ
C:\WINDOWS\SYSTEM32\TZRES.DLL
C:\PROGRAM FILES (X86)\WINDOWS KITS\10\LIB\10.0.15063.0\UM\X64\IMM32.LIB
C:\PROGRAM FILES (X86)\MICROSOFT VISUAL STUDIO\2017\COMMUNITY\VC\TOOLS\MSVC\14.11.25503\LIB\X64\MSVCRTD.LIB
C:\PROGRAM FILES (X86)\MICROSOFT VISUAL STUDIO\2017\COMMUNITY\VC\TOOLS\MSVC\14.11.25503\LIB\X64\OLDNAMES.LIB
C:\PROGRAM FILES (X86)\MICROSOFT VISUAL STUDIO\2017\COMMUNITY\VC\TOOLS\MSVC\14.11.25503\LIB\X64\MSVCPRTD.LIB
C:\PROGRAM FILES (X86)\MICROSOFT VISUAL STUDIO\2017\COMMUNITY\VC\TOOLS\MSVC\14.11.25503\LIB\X64\VCRUNTIMED.LIB
C:\PROGRAM FILES (X86)\WINDOWS KITS\10\LIB\10.0.15063.0\UCRT\X64\UCRTD.LIB
